<svg width="168" height="32" viewBox="0 0 168 32" fill="none" xmlns="http://www.w3.org/2000/svg">
<path d="M11.7733 12.29C12.8933 12.49 13.8433 13.08 14.6233 14.06C15.4033 15.04 15.7933 16.15 15.7933 17.39C15.7933 18.45 15.5133 19.41 14.9533 20.27C14.4133 21.11 13.6233 21.78 12.5833 22.28C11.5433 22.76 10.3333 23 8.95328 23H0.613281V2.15H8.56328C9.98328 2.15 11.2033 2.39 12.2233 2.87C13.2433 3.35 14.0133 4 14.5333 4.82C15.0533 5.62 15.3133 6.52 15.3133 7.52C15.3133 8.72 14.9933 9.72 14.3533 10.52C13.7133 11.32 12.8533 11.91 11.7733 12.29ZM4.03328 10.91H8.26328C9.38328 10.91 10.2533 10.66 10.8733 10.16C11.5133 9.64 11.8333 8.9 11.8333 7.94C11.8333 7 11.5133 6.27 10.8733 5.75C10.2533 5.21 9.38328 4.94 8.26328 4.94H4.03328V10.91ZM8.65328 20.21C9.81328 20.21 10.7233 19.93 11.3833 19.37C12.0433 18.81 12.3733 18.03 12.3733 17.03C12.3733 16.01 12.0233 15.2 11.3233 14.6C10.6233 14 9.69328 13.7 8.53328 13.7H4.03328V20.21H8.65328ZM22.9298 8.87C23.4298 8.03 24.0898 7.38 24.9098 6.92C25.7498 6.44 26.7398 6.2 27.8798 6.2V9.74H27.0098C25.6698 9.74 24.6498 10.08 23.9498 10.76C23.2698 11.44 22.9298 12.62 22.9298 14.3V23H19.5098V6.47H22.9298V8.87ZM29.8834 14.66C29.8834 13 30.2234 11.53 30.9034 10.25C31.6034 8.97 32.5434 7.98 33.7234 7.28C34.9234 6.56 36.2434 6.2 37.6834 6.2C38.9834 6.2 40.1134 6.46 41.0734 6.98C42.0534 7.48 42.8334 8.11 43.4134 8.87V6.47H46.8634V23H43.4134V20.54C42.8334 21.32 42.0434 21.97 41.0434 22.49C40.0434 23.01 38.9034 23.27 37.6234 23.27C36.2034 23.27 34.9034 22.91 33.7234 22.19C32.5434 21.45 31.6034 20.43 30.9034 19.13C30.2234 17.81 29.8834 16.32 29.8834 14.66ZM43.4134 14.72C43.4134 13.58 43.1734 12.59 42.6934 11.75C42.2334 10.91 41.6234 10.27 40.8634 9.83C40.1034 9.39 39.2834 9.17 38.4034 9.17C37.5234 9.17 36.7034 9.39 35.9434 9.83C35.1834 10.25 34.5634 10.88 34.0834 11.72C33.6234 12.54 33.3934 13.52 33.3934 14.66C33.3934 15.8 33.6234 16.8 34.0834 17.66C34.5634 18.52 35.1834 19.18 35.9434 19.64C36.7234 20.08 37.5434 20.3 38.4034 20.3C39.2834 20.3 40.1034 20.08 40.8634 19.64C41.6234 19.2 42.2334 18.56 42.6934 17.72C43.1734 16.86 43.4134 15.86 43.4134 14.72ZM59.6955 6.2C60.9955 6.2 62.1555 6.47 63.1755 7.01C64.2155 7.55 65.0255 8.35 65.6055 9.41C66.1855 10.47 66.4755 11.75 66.4755 13.25V23H63.0855V13.76C63.0855 12.28 62.7155 11.15 61.9755 10.37C61.2355 9.57 60.2255 9.17 58.9455 9.17C57.6655 9.17 56.6455 9.57 55.8855 10.37C55.1455 11.15 54.7755 12.28 54.7755 13.76V23H51.3555V6.47H54.7755V8.36C55.3355 7.68 56.0455 7.15 56.9055 6.77C57.7855 6.39 58.7155 6.2 59.6955 6.2ZM69.6979 14.66C69.6979 13 70.0379 11.53 70.7179 10.25C71.4179 8.97 72.3579 7.98 73.5379 7.28C74.7379 6.56 76.0679 6.2 77.5279 6.2C78.6079 6.2 79.6679 6.44 80.7079 6.92C81.7679 7.38 82.6079 8 83.2279 8.78V0.8H86.6779V23H83.2279V20.51C82.6679 21.31 81.8879 21.97 80.8879 22.49C79.9079 23.01 78.7779 23.27 77.4979 23.27C76.0579 23.27 74.7379 22.91 73.5379 22.19C72.3579 21.45 71.4179 20.43 70.7179 19.13C70.0379 17.81 69.6979 16.32 69.6979 14.66ZM83.2279 14.72C83.2279 13.58 82.9879 12.59 82.5079 11.75C82.0479 10.91 81.4379 10.27 80.6779 9.83C79.9179 9.39 79.0979 9.17 78.2179 9.17C77.3379 9.17 76.5179 9.39 75.7579 9.83C74.9979 10.25 74.3779 10.88 73.8979 11.72C73.4379 12.54 73.2079 13.52 73.2079 14.66C73.2079 15.8 73.4379 16.8 73.8979 17.66C74.3779 18.52 74.9979 19.18 75.7579 19.64C76.5379 20.08 77.3579 20.3 78.2179 20.3C79.0979 20.3 79.9179 20.08 80.6779 19.64C81.4379 19.2 82.0479 18.56 82.5079 17.72C82.9879 16.86 83.2279 15.86 83.2279 14.72ZM102.383 20.24H109.433V23H98.9629V2.15H102.383V20.24ZM119.463 23.27C117.903 23.27 116.493 22.92 115.233 22.22C113.973 21.5 112.983 20.5 112.263 19.22C111.543 17.92 111.183 16.42 111.183 14.72C111.183 13.04 111.553 11.55 112.293 10.25C113.033 8.95 114.043 7.95 115.323 7.25C116.603 6.55 118.033 6.2 119.613 6.2C121.193 6.2 122.623 6.55 123.903 7.25C125.183 7.95 126.193 8.95 126.933 10.25C127.673 11.55 128.043 13.04 128.043 14.72C128.043 16.4 127.663 17.89 126.903 19.19C126.143 20.49 125.103 21.5 123.783 22.22C122.483 22.92 121.043 23.27 119.463 23.27ZM119.463 20.3C120.343 20.3 121.163 20.09 121.923 19.67C122.703 19.25 123.333 18.62 123.813 17.78C124.293 16.94 124.533 15.92 124.533 14.72C124.533 13.52 124.303 12.51 123.843 11.69C123.383 10.85 122.773 10.22 122.013 9.8C121.253 9.38 120.433 9.17 119.553 9.17C118.673 9.17 117.853 9.38 117.093 9.8C116.353 10.22 115.763 10.85 115.323 11.69C114.883 12.51 114.663 13.52 114.663 14.72C114.663 16.5 115.113 17.88 116.013 18.86C116.933 19.82 118.083 20.3 119.463 20.3ZM138.084 6.2C139.364 6.2 140.494 6.46 141.474 6.98C142.474 7.48 143.254 8.11 143.814 8.87V6.47H147.264V23.27C147.264 24.79 146.944 26.14 146.304 27.32C145.664 28.52 144.734 29.46 143.514 30.14C142.314 30.82 140.874 31.16 139.194 31.16C136.954 31.16 135.094 30.63 133.614 29.57C132.134 28.53 131.294 27.11 131.094 25.31H134.484C134.744 26.17 135.294 26.86 136.134 27.38C136.994 27.92 138.014 28.19 139.194 28.19C140.574 28.19 141.684 27.77 142.524 26.93C143.384 26.09 143.814 24.87 143.814 23.27V20.51C143.234 21.29 142.444 21.95 141.444 22.49C140.464 23.01 139.344 23.27 138.084 23.27C136.644 23.27 135.324 22.91 134.124 22.19C132.944 21.45 132.004 20.43 131.304 19.13C130.624 17.81 130.284 16.32 130.284 14.66C130.284 13 130.624 11.53 131.304 10.25C132.004 8.97 132.944 7.98 134.124 7.28C135.324 6.56 136.644 6.2 138.084 6.2ZM143.814 14.72C143.814 13.58 143.574 12.59 143.094 11.75C142.634 10.91 142.024 10.27 141.264 9.83C140.504 9.39 139.684 9.17 138.804 9.17C137.924 9.17 137.104 9.39 136.344 9.83C135.584 10.25 134.964 10.88 134.484 11.72C134.024 12.54 133.794 13.52 133.794 14.66C133.794 15.8 134.024 16.8 134.484 17.66C134.964 18.52 135.584 19.18 136.344 19.64C137.124 20.08 137.944 20.3 138.804 20.3C139.684 20.3 140.504 20.08 141.264 19.64C142.024 19.2 142.634 18.56 143.094 17.72C143.574 16.86 143.814 15.86 143.814 14.72ZM158.926 23.27C157.366 23.27 155.956 22.92 154.696 22.22C153.436 21.5 152.446 20.5 151.726 19.22C151.006 17.92 150.646 16.42 150.646 14.72C150.646 13.04 151.016 11.55 151.756 10.25C152.496 8.95 153.506 7.95 154.786 7.25C156.066 6.55 157.496 6.2 159.076 6.2C160.656 6.2 162.086 6.55 163.366 7.25C164.646 7.95 165.656 8.95 166.396 10.25C167.136 11.55 167.506 13.04 167.506 14.72C167.506 16.4 167.126 17.89 166.366 19.19C165.606 20.49 164.566 21.5 163.246 22.22C161.946 22.92 160.506 23.27 158.926 23.27ZM158.926 20.3C159.806 20.3 160.626 20.09 161.386 19.67C162.166 19.25 162.796 18.62 163.276 17.78C163.756 16.94 163.996 15.92 163.996 14.72C163.996 13.52 163.766 12.51 163.306 11.69C162.846 10.85 162.236 10.22 161.476 9.8C160.716 9.38 159.896 9.17 159.016 9.17C158.136 9.17 157.316 9.38 156.556 9.8C155.816 10.22 155.226 10.85 154.786 11.69C154.346 12.51 154.126 13.52 154.126 14.72C154.126 16.5 154.576 17.88 155.476 18.86C156.396 19.82 157.546 20.3 158.926 20.3Z" fill="black"/>
</svg>
